{
    "@class": "com.kony.gen.viz.model.component.KVizButton",
    "DNDConfig": null,
    "__parentReadjusting__": false,
    "_height_": {
        "type": "string",
        "value": "65%"
    },
    "_left_": {
        "type": "string",
        "value": "10%"
    },
    "_margin_": [
        6,
        6,
        6,
        6
    ],
    "_padding_": [
        0,
        0,
        0,
        0
    ],
    "_skin_": "s37954962b3a4092bea6021da840eb6d",
    "_text_": "",
    "_width_": {
        "type": "string",
        "value": "16%"
    },
    "canUpdateUI": true,
    "centery": {
        "type": "string",
        "value": "50%"
    },
    "containerweight": 100,
    "contentalignment": 5,
    "disabledSkins": {},
    "displaytext": true,
    "focusskin": "s37954962b3a4092bea6021da840eb6d",
    "id": "btnTogal",
    "ide_onClick": "AS_Button_e88f6370e4f244b782bbcb49e7f75ae7",
    "info": null,
    "iscustomlayout": false,
    "isvisible": true,
    "kuid": "e81687f99485420e88267f28a51a5f55",
    "name": "kony.ui.Button",
    "parent": "flxAlextaOptions",
    "pf": "frmSettings",
    "retaincontentalignment": false,
    "retainflexpositionproperties": false,
    "wType": "Button",
    "zindex": 1
}