{
    "@class": "com.kony.gen.viz.model.component.KVizRichText",
    "DNDConfig": null,
    "__parentReadjusting__": false,
    "_height_": {
        "type": "string",
        "value": "100%"
    },
    "_margin_": [
        0,
        0,
        0,
        0
    ],
    "_padding_": [
        0,
        0,
        0,
        0
    ],
    "_skin_": "sb99282082354e5b92f2ab115abf74c5",
    "_text_": "<p>&copy; 1998-2019. All Rights Reserved<p>",
    "_top_": {
        "type": "number",
        "value": "0"
    },
    "_width_": {
        "type": "string",
        "value": "100%"
    },
    "_wrapping_": 2,
    "canUpdateUI": true,
    "centerx": {
        "type": "string",
        "value": "50%"
    },
    "containerweight": 100,
    "contentalignment": 5,
    "id": "rctCopyRight",
    "info": null,
    "iscustomlayout": false,
    "isvisible": true,
    "kuid": "b927f61fc7e34004b69756a23e14c578",
    "linkskin": "s5ae88b8dbe345deab9a3d385d6c4496",
    "name": "kony.ui.RichText",
    "parent": "flxCopyright",
    "pf": "frmLogin",
    "retaincontentalignment": false,
    "retainflexpositionproperties": false,
    "wType": "RichText",
    "widgetalignment": 5,
    "zindex": 1
}